{
  "project_info": {
    "project_number": "765345555582",
    "project_id": "pages1-5bff5",
    "storage_bucket": "pages1-5bff5.appspot.com"
  },
  "client": [
    {
      "client_info": {
        "mobilesdk_app_id": "1:765345555582:android:1e759941ba9d18de86242f",
        "android_client_info": {
          "package_name": "com.pages"
        }
      },
      "oauth_client": [
        {
          "client_id": "765345555582-jttg20g4fghtl09fbbn55irskcutq0ih.apps.googleusercontent.com",
          "client_type": 3
        }
      ],
      "api_key": [
        {
          "current_key": "AIzaSyCg21NbLw4fz8_f1NqWT_m1TjwPPb-NdUI"
        }
      ],
      "services": {
        "appinvite_service": {
          "other_platform_oauth_client": [
            {
              "client_id": "765345555582-jttg20g4fghtl09fbbn55irskcutq0ih.apps.googleusercontent.com",
              "client_type": 3
            }
          ]
        }
      }
    }
  ],
  "configuration_version": "1"
}